{
    "data": [
        {
            "id": 1,
            "location": "Poncokusumo",
            "rating": 4,
            "camp": "Sukacita Camping Ground",
            "price": "Rp. 100.000,00",
            "address": "Jl. Raya Bromo, Wonotoro, Sukapura, Probolinggo, Jawa Timur 67254",
            "height": "2.392 mdpl",
            "review_count": 200,
            "recomendationByPercentage": 80,
            "availableCount": 2,
            "campSummary": "Sukacita Camping Ground merupakan salah satu tempat camping di Bromo yang terletak di Desa Wonotoro, Sukapura, Probolinggo. Lokasi camping ini berada di ketinggian 2.392 mdpl. Dengan ketinggian tersebut, kamu bisa menikmati pemandangan Gunung Bromo yang sangat indah. Selain itu, kamu juga bisa melihat pemandangan Gunung Batok dan Gunung Semeru dari tempat ini. Jika kamu ingin berkunjung ke Sukacita Camping Ground, kamu bisa menggunakan kendaraan pribadi atau kendaraan umum. Jika kamu menggunakan kendaraan umum, kamu bisa menggunakan bus dari Terminal Probolinggo menuju Terminal Tumpang. Setelah itu, kamu bisa menggunakan ojek menuju Sukacita Camping Ground. Jika kamu menggunakan kendaraan pribadi, kamu bisa menggunakan rute Probolinggo – Tumpang – Sukapura – Sukacita Camping Ground. Jika kamu menggunakan rute ini, kamu akan melewati Jalan Raya Bromo. Jika kamu menggunakan rute ini, kamu akan melewati Jalan Raya Bromo. ",
            "facility": [
                {
                    "type": "camp",
                    "facilities": [
                        {
                            "name": "Tenda"
                        },
                        {
                            "name": "Kasur Lipat"
                        },
                        {
                            "name": "Sleeping Bag"
                        },
                        {
                            "name": "Bantal"
                        },
                        {
                            "name": "Selimut"
                        },
                        {
                            "name": "Meja dan Kursi"
                        }
                    ]
                },
                {
                    "type": "general",
                    "facilities": [
                        {
                            "name": "Toilet dan Kamar Mandi"
                        },
                        {
                            "name": "Tempat Parkir"
                        },
                        {
                            "name": "Area BBQ"
                        },
                        {
                            "name": "Penyewaan Alat Camping"
                        },
                        {
                            "name": "Toko Oleh Oleh"
                        },
                        {
                            "name": "Resepsionis 24 Jam"
                        }
                    ]
                }
            ]
        },
        {
            "id": 2,
            "location": "Poncokusumo",
            "rating": 4,
            "camp": "Sukacita Camping Ground",
            "price": "Rp. 100.000,00"
        },
        {
            "id": 3,
            "location": "Poncokusumo",
            "rating": 4,
            "camp": "Sukacita Camping Ground",
            "price": "Rp. 100.000,00"
        },
        {
            "id": 4,
            "location": "Poncokusumo",
            "rating": 4,
            "camp": "Sukacita Camping Ground",
            "price": "Rp. 100.000,00"
        },
        {
            "id": 5,
            "location": "Poncokusumo",
            "rating": 4,
            "camp": "Sukacita Camping Ground",
            "price": "Rp. 100.000,00"
        },
        {
            "id": 6,
            "location": "Poncokusumo",
            "rating": 4,
            "camp": "Sukacita Camping Ground",
            "price": "Rp. 100.000,00"
        },
        {
            "id": 7,
            "location": "Poncokusumo",
            "rating": 4,
            "camp": "Sukacita Camping Ground",
            "price": "Rp. 100.000,00"
        },
        {
            "id": 8,
            "location": "Poncokusumo",
            "rating": 4,
            "camp": "Sukacita Camping Ground",
            "price": "Rp. 100.000,00"
        }
    ]
}